Tidy Tuesday Week 10
…
## See spec(...) for full column specifications.

season_goals_nhl

## # A tibble: 4,810 x 23
##     rank position hand  player years total_goals status yr_start season   age
##    <dbl> <chr>    <chr> <chr>  <chr>       <dbl> <chr>     <dbl> <chr>  <dbl>
##  1     1 C        Left  Wayne 1979         894 Retir     1979 1978-    18
##  2     1 C        Left  Wayne 1979         894 Retir     1979 1978-    18
##  3     1 C        Left  Wayne 1979         894 Retir     1979 1978-    18
##  4     1 C        Left  Wayne 1979         894 Retir     1979 1979-    19
##  5     1 C        Left  Wayne 1979         894 Retir     1979 1980-    20
##  6     1 C        Left  Wayne 1979         894 Retir     1979 1981-    21
##  7     1 C        Left  Wayne 1979         894 Retir     1979 1982-    22
##  8     1 C        Left  Wayne 1979         894 Retir     1979 1983-    23
##  9     1 C        Left  Wayne 1979         894 Retir     1979 1984-    24
## 10     1 C        Left  Wayne 1979         894 Retir     1979 1985-    25
## #  with 4,800 more rows, and 13 more variables: team <chr>, league <chr>,
## #   season_games <dbl>, goals <dbl>, assists <dbl>, points <dbl>,
## #   plus_minus <dbl>, penalty_min <dbl>, goals_even <dbl>,
## #   goals_power_play <dbl>, goals_short_handed <dbl>, goals_game_winner <dbl>,
## #   headshot <chr>
…
