Tidy Tuesday Week 11
…
## Parsed with column specification:
## cols(
##   rank = col_double(),
##   name = col_character(),
##   state_name = col_character(),
##   early_career_pay = col_double(),
##   mid_career_pay = col_double(),
##   make_world_better_percent = col_double(),
##   stem_percent = col_double()
## )

salary

## # A tibble: 935 x 7
##     rank name  state_name early_career_pay mid_career_pay make_world_bett
##    <dbl> <chr> <chr>                 <dbl>          <dbl>            <dbl>
##  1     1 Aubu Alabama               54400         104500               51
##  2     2 Univ Alabama               57500         103900               59
##  3     3 The  Alabama               52300          97400               50
##  4     4 Tusk Alabama               54500          93500               61
##  5     5 Samf Alabama               48400          90500               52
##  6     6 Spri Alabama               46600          89100               53
##  7     7 Birm Alabama               49100          88300               48
##  8     8 Univ Alabama               48600          87200               57
##  9     9 Univ Alabama               47700          86400               56
## 10    10 Alab Alabama               48700          83500               58
## #  with 925 more rows, and 1 more variable: stem_percent <dbl>

salary%>%
  dplyr::filter(state_name == "New-Jersey") -> new_jersey_salary
new_jersey_salary #looking at ONLY new jersey schools

## # A tibble: 25 x 7
##     rank name  state_name early_career_pay mid_career_pay make_world_bett
##    <dbl> <chr> <chr>                 <dbl>          <dbl>            <dbl>
##  1     1 Stev New-Jersey            75100         139900               47
##  2     2 Prin New-Jersey            75200         139400               48
##  3     3 New  New-Jersey            64600         121300               51
##  4     4 Rutg New-Jersey            59800         111000               42
##  5     5 Seto New-Jersey            57100         103800               45
##  6     6 Rutg New-Jersey            57900         101800               52
##  7     6 The  New-Jersey            58200         101800               44
##  8     8 Ride New-Jersey            51600          99000               47
##  9     9 Fair New-Jersey            53700          98500               42
## 10     9 Fair New-Jersey            53700          98500               42
## #  with 15 more rows, and 1 more variable: stem_percent <dbl>
…
